<svg width="1920" height="1080" viewBox="0 0 1920 1080" fill="none" xmlns="http://www.w3.org/2000/svg">
<rect width="1920" height="1080" fill="#E5E5E5"/>
<path d="M-296.409 -176H247.5C247.5 -176 1105.47 423.467 148.774 842.444C-807.922 1261.42 -296.409 537.961 -296.409 537.961V164.954V-176Z" fill="#6E44FF"/>
<path d="M1747.44 1581.34H1974.94V821.524C1974.94 821.524 2027.44 473.845 1747.44 821.524C1467.45 1169.2 1747.44 1581.34 1747.44 1581.34Z" fill="#6E44FF"/>
</svg>
