<svg width="315" height="101" viewBox="0 0 315 101" fill="none" xmlns="http://www.w3.org/2000/svg">
<path d="M51 15.6842H57C57.5523 15.6842 58 16.1319 58 16.6842V73.0171C58 73.2173 57.9399 73.4129 57.8275 73.5786L54.8275 77.9996C54.4307 78.5843 53.5693 78.5843 53.1725 77.9996L50.1725 73.5786C50.0601 73.4129 50 73.2173 50 73.0171V16.6842C50 16.1319 50.4477 15.6842 51 15.6842Z" fill="#3ABDE7" stroke="#212121" stroke-width="2"/>
<rect x="51" y="15" width="6" height="3.43137" fill="white"/>
<path d="M58 16.5C58 17.0506 57.6825 17.6514 56.9621 18.1556C56.2448 18.6577 55.2007 19 54 19C52.7993 19 51.7552 18.6577 51.0379 18.1556C50.3175 17.6514 50 17.0506 50 16.5C50 15.9494 50.3175 15.3486 51.0379 14.8444C51.7552 14.3423 52.7993 14 54 14C55.2007 14 56.2448 14.3423 56.9621 14.8444C57.6825 15.3486 58 15.9494 58 16.5Z" stroke="#212121" stroke-width="2"/>
<path d="M11 15.6842H17C17.5523 15.6842 18 16.1319 18 16.6842V73.0171C18 73.2173 17.9399 73.4129 17.8275 73.5786L14.8275 77.9996C14.4307 78.5843 13.5693 78.5843 13.1725 77.9996L10.1725 73.5786C10.0601 73.4129 10 73.2173 10 73.0171V16.6842C10 16.1319 10.4477 15.6842 11 15.6842Z" fill="#3ABDE7" stroke="#212121" stroke-width="2"/>
<rect x="11" y="15" width="6" height="3.43137" fill="white"/>
<path d="M18 16.5C18 17.0506 17.6825 17.6514 16.9621 18.1556C16.2448 18.6577 15.2007 19 14 19C12.7993 19 11.7552 18.6577 11.0379 18.1556C10.3175 17.6514 10 17.0506 10 16.5C10 15.9494 10.3175 15.3486 11.0379 14.8444C11.7552 14.3423 12.7993 14 14 14C15.2007 14 16.2448 14.3423 16.9621 14.8444C17.6825 15.3486 18 15.9494 18 16.5Z" stroke="#212121" stroke-width="2"/>
<path d="M21 10.2632H27C27.5523 10.2632 28 10.7109 28 11.2632V76.9305C28 77.1083 27.9526 77.283 27.8626 77.4364L24.8626 82.5522C24.4763 83.211 23.5238 83.211 23.1374 82.5522L20.1374 77.4364C20.0474 77.283 20 77.1083 20 76.9305V11.2632C20 10.7109 20.4477 10.2632 21 10.2632Z" fill="#3ABDE7" stroke="#212121" stroke-width="2"/>
<rect x="21" y="10" width="6" height="3.97059" fill="white"/>
<path d="M28 11.5C28 12.0506 27.6825 12.6514 26.9621 13.1556C26.2448 13.6577 25.2007 14 24 14C22.7993 14 21.7552 13.6577 21.0379 13.1556C20.3175 12.6514 20 12.0506 20 11.5C20 10.9494 20.3175 10.3486 21.0379 9.84436C21.7552 9.34229 22.7993 9 24 9C25.2007 9 26.2448 9.34229 26.9621 9.84436C27.6825 10.3486 28 10.9494 28 11.5Z" stroke="#212121" stroke-width="2"/>
<path d="M41 10.2632H47C47.5523 10.2632 48 10.7109 48 11.2632V76.9305C48 77.1083 47.9526 77.283 47.8626 77.4364L44.8626 82.5522C44.4763 83.211 43.5238 83.211 43.1374 82.5522L40.1374 77.4364C40.0474 77.283 40 77.1083 40 76.9305V11.2632C40 10.7109 40.4477 10.2632 41 10.2632Z" fill="#3ABDE7" stroke="#212121" stroke-width="2"/>
<rect x="41" y="10" width="6" height="3.97059" fill="white"/>
<path d="M48 11.5C48 12.0506 47.6825 12.6514 46.9621 13.1556C46.2448 13.6577 45.2007 14 44 14C42.7993 14 41.7552 13.6577 41.0379 13.1556C40.3175 12.6514 40 12.0506 40 11.5C40 10.9494 40.3175 10.3486 41.0379 9.84436C41.7552 9.34229 42.7993 9 44 9C45.2007 9 46.2448 9.34229 46.9621 9.84436C47.6825 10.3486 48 10.9494 48 11.5Z" stroke="#212121" stroke-width="2"/>
<path d="M31 7.68421H37C37.5523 7.68421 38 8.13193 38 8.68421V81.1313C38 81.2955 37.9595 81.4572 37.8822 81.6021L34.8822 87.2232C34.5057 87.9287 33.4943 87.9287 33.1178 87.2232L30.1178 81.6021C30.0405 81.4572 30 81.2955 30 81.1313V8.68421C30 8.13193 30.4477 7.68421 31 7.68421Z" fill="#3ABDE7" stroke="#212121" stroke-width="2"/>
<rect x="31" y="5.86957" width="6" height="4.36275" fill="white"/>
<path d="M38 8.28804C38 8.79194 37.6989 9.36391 36.9748 9.8542C36.2564 10.3407 35.2076 10.6739 34 10.6739C32.7924 10.6739 31.7436 10.3407 31.0252 9.8542C30.3011 9.36391 30 8.79194 30 8.28804C30 7.78415 30.3011 7.21218 31.0252 6.72189C31.7436 6.2354 32.7924 5.90218 34 5.90218C35.2076 5.90218 36.2564 6.2354 36.9748 6.72189C37.6989 7.21218 38 7.78415 38 8.28804Z" stroke="#212121" stroke-width="2"/>
<path d="M33.8548 74.4C28.3614 74.4 23.4014 73.1733 18.9748 70.72C14.5481 68.2133 11.0548 64.8 8.49476 60.48C5.9881 56.16 4.73476 51.3333 4.73476 46C4.73476 40.6667 5.9881 35.84 8.49476 31.52C11.0548 27.2 14.5481 23.8133 18.9748 21.36C23.4014 18.8533 28.3614 17.6 33.8548 17.6C39.3481 17.6 44.3081 18.8267 48.7348 21.28C53.1614 23.7333 56.6281 27.12 59.1348 31.44C61.6948 35.76 62.9748 40.6133 62.9748 46C62.9748 51.3867 61.6948 56.24 59.1348 60.56C56.6281 64.88 53.1614 68.2667 48.7348 70.72C44.3081 73.1733 39.3481 74.4 33.8548 74.4ZM33.8548 70.64C38.5481 70.64 42.7881 69.5733 46.5748 67.44C50.3614 65.3067 53.3481 62.3733 55.5348 58.64C57.7214 54.8533 58.8148 50.64 58.8148 46C58.8148 41.36 57.7214 37.1733 55.5348 33.44C53.3481 29.6533 50.3614 26.6933 46.5748 24.56C42.7881 22.4267 38.5481 21.36 33.8548 21.36C29.1614 21.36 24.8948 22.4267 21.0548 24.56C17.2681 26.6933 14.2814 29.6533 12.0948 33.44C9.9081 37.1733 8.81476 41.36 8.81476 46C8.81476 50.64 9.9081 54.8533 12.0948 58.64C14.2814 62.3733 17.2681 65.3067 21.0548 67.44C24.8948 69.5733 29.1614 70.64 33.8548 70.64ZM81.386 48.62C82.386 46.5 83.866 44.9 85.826 43.82C87.826 42.74 90.286 42.2 93.206 42.2V46.34L92.186 46.28C88.866 46.28 86.266 47.3 84.386 49.34C82.506 51.38 81.566 54.24 81.566 57.92V74H77.306V42.44H81.386V48.62ZM132.846 42.44V70.16C132.846 75.52 131.526 79.48 128.886 82.04C126.286 84.64 122.346 85.94 117.066 85.94C114.146 85.94 111.366 85.5 108.726 84.62C106.126 83.78 104.006 82.6 102.366 81.08L104.526 77.84C106.046 79.2 107.886 80.26 110.046 81.02C112.246 81.78 114.546 82.16 116.946 82.16C120.946 82.16 123.886 81.22 125.766 79.34C127.646 77.5 128.586 74.62 128.586 70.7V66.68C127.266 68.68 125.526 70.2 123.366 71.24C121.246 72.28 118.886 72.8 116.286 72.8C113.326 72.8 110.626 72.16 108.186 70.88C105.786 69.56 103.886 67.74 102.486 65.42C101.126 63.06 100.446 60.4 100.446 57.44C100.446 54.48 101.126 51.84 102.486 49.52C103.886 47.2 105.786 45.4 108.186 44.12C110.586 42.84 113.286 42.2 116.286 42.2C118.966 42.2 121.386 42.74 123.546 43.82C125.706 44.9 127.446 46.46 128.766 48.5V42.44H132.846ZM116.706 69.02C118.986 69.02 121.046 68.54 122.886 67.58C124.726 66.58 126.146 65.2 127.146 63.44C128.186 61.68 128.706 59.68 128.706 57.44C128.706 55.2 128.186 53.22 127.146 51.5C126.146 49.74 124.726 48.38 122.886 47.42C121.086 46.42 119.026 45.92 116.706 45.92C114.426 45.92 112.366 46.4 110.526 47.36C108.726 48.32 107.306 49.68 106.266 51.44C105.266 53.2 104.766 55.2 104.766 57.44C104.766 59.68 105.266 61.68 106.266 63.44C107.306 65.2 108.726 66.58 110.526 67.58C112.366 68.54 114.426 69.02 116.706 69.02ZM158.799 42.2C162.919 42.2 166.079 43.24 168.279 45.32C170.479 47.36 171.579 50.4 171.579 54.44V74H167.499V69.08C166.539 70.72 165.119 72 163.239 72.92C161.399 73.84 159.199 74.3 156.639 74.3C153.119 74.3 150.319 73.46 148.239 71.78C146.159 70.1 145.119 67.88 145.119 65.12C145.119 62.44 146.079 60.28 147.999 58.64C149.959 57 153.059 56.18 157.299 56.18H167.319V54.26C167.319 51.54 166.559 49.48 165.039 48.08C163.519 46.64 161.299 45.92 158.379 45.92C156.379 45.92 154.459 46.26 152.619 46.94C150.779 47.58 149.199 48.48 147.879 49.64L145.959 46.46C147.559 45.1 149.479 44.06 151.719 43.34C153.959 42.58 156.319 42.2 158.799 42.2ZM157.299 70.94C159.699 70.94 161.759 70.4 163.479 69.32C165.199 68.2 166.479 66.6 167.319 64.52V59.36H157.419C152.019 59.36 149.319 61.24 149.319 65C149.319 66.84 150.019 68.3 151.419 69.38C152.819 70.42 154.779 70.94 157.299 70.94ZM202.23 42.2C206.19 42.2 209.33 43.36 211.65 45.68C214.01 47.96 215.19 51.3 215.19 55.7V74H210.93V56.12C210.93 52.84 210.11 50.34 208.47 48.62C206.83 46.9 204.49 46.04 201.45 46.04C198.05 46.04 195.35 47.06 193.35 49.1C191.39 51.1 190.41 53.88 190.41 57.44V74H186.15V42.44H190.23V48.26C191.39 46.34 192.99 44.86 195.03 43.82C197.11 42.74 199.51 42.2 202.23 42.2Z" fill="#565656"/>
<path d="M246.087 38.36C246.567 38.36 246.879 38.456 247.023 38.648C247.695 39.464 248.031 40.136 248.031 40.664C248.031 41.144 247.887 41.576 247.599 41.96C247.311 42.296 246.951 42.704 246.519 43.184C246.135 43.616 245.319 44.24 244.071 45.056C242.871 45.824 241.695 46.208 240.543 46.208C239.679 46.064 239.247 45.536 239.247 44.624C239.247 43.184 240.111 41.792 241.839 40.448C243.567 39.056 244.983 38.36 246.087 38.36ZM228.807 66.728C228.423 67.4 228.231 68 228.231 68.528C228.231 69.056 228.519 69.32 229.095 69.32C229.431 69.32 230.007 69.176 230.823 68.888C239.799 64.184 248.583 58.64 257.175 52.256C257.607 52.592 257.823 53 257.823 53.48C257.823 53.96 257.583 54.416 257.103 54.848C256.623 55.28 255.927 55.904 255.015 56.72C254.151 57.536 252.471 59 249.975 61.112C247.479 63.224 245.151 65.144 242.991 66.872C237.327 71.432 233.151 74.12 230.463 74.936C229.599 75.176 228.663 75.296 227.655 75.296C223.959 75.296 222.111 73.328 222.111 69.392C222.111 67.856 222.951 65.672 224.631 62.84C226.311 59.96 228.039 57.44 229.815 55.28C231.591 53.072 232.767 51.848 233.343 51.608C234.207 51.08 235.143 50.816 236.151 50.816C237.159 50.816 238.119 51.008 239.031 51.392C239.319 51.536 239.463 51.728 239.463 51.968C239.463 52.208 239.223 52.568 238.743 53.048C238.311 53.528 237.615 54.272 236.655 55.28C235.743 56.288 234.351 58.04 232.479 60.536C230.655 62.984 229.431 65.048 228.807 66.728ZM263.785 55.28L263.497 55.352C259.081 56.216 256.633 56.648 256.153 56.648C255.721 56.648 255.289 56.432 254.857 56C253.513 54.08 252.841 52.784 252.841 52.112C252.841 51.392 253.225 50.936 253.993 50.744C258.169 49.832 261.601 49.376 264.289 49.376C267.025 49.376 268.681 49.688 269.257 50.312C271.033 52.088 271.921 53.168 271.921 53.552C271.921 53.936 271.681 54.272 271.201 54.56C267.457 56.528 263.593 58.832 259.609 61.472C255.673 64.064 252.985 66.152 251.545 67.736C251.545 67.784 251.665 67.808 251.905 67.808C252.193 67.808 253.249 67.544 255.073 67.016C256.945 66.44 258.649 66.152 260.185 66.152C261.721 66.152 262.753 66.416 263.281 66.944C265.729 69.776 266.953 71.696 266.953 72.704C266.953 73.088 266.761 73.28 266.377 73.28C266.137 73.28 265.705 73.064 265.081 72.632C264.505 72.2 263.785 71.984 262.921 71.984C262.057 71.984 261.337 72.08 260.761 72.272C255.193 73.904 250.729 74.72 247.369 74.72C246.841 74.72 246.097 74.24 245.137 73.28C244.177 72.272 243.697 71.288 243.697 70.328C243.697 68.792 244.753 67.208 246.865 65.576C248.977 63.896 252.001 62 255.937 59.888C260.593 57.392 263.209 55.856 263.785 55.28ZM294.759 52.256C293.511 52.256 291.399 53.552 288.423 56.144C285.447 58.688 283.959 60.248 283.959 60.824C283.959 60.92 284.031 60.968 284.175 60.968C285.231 60.968 287.319 59.792 290.439 57.44C293.607 55.088 295.191 53.48 295.191 52.616C295.191 52.376 295.047 52.256 294.759 52.256ZM279.423 75.296C275.727 75.296 273.879 73.04 273.879 68.528C273.879 65.696 275.103 62.696 277.551 59.528C280.047 56.312 282.975 53.696 286.335 51.68C289.695 49.616 292.671 48.584 295.263 48.584C296.415 48.584 297.471 49.04 298.431 49.952C299.439 50.864 299.943 51.752 299.943 52.616C299.943 54.2 298.815 56 296.559 58.016C294.303 59.984 291.927 61.592 289.431 62.84C286.983 64.04 285.351 64.64 284.535 64.64C283.767 64.64 283.191 64.28 282.807 63.56C282.615 63.416 282.351 63.344 282.015 63.344C281.679 63.344 281.127 63.992 280.359 65.288C279.591 66.536 279.207 67.568 279.207 68.384C279.207 69.152 279.495 69.632 280.071 69.824C283.719 69.824 287.679 68.768 291.951 66.656C296.223 64.496 302.127 60.728 309.663 55.352C310.191 54.968 310.983 54.392 312.039 53.624C313.143 52.856 313.791 52.4 313.983 52.256C314.415 52.592 314.631 53 314.631 53.48C314.631 53.96 314.415 54.392 313.983 54.776C311.583 57.176 308.463 59.864 304.623 62.84C300.831 65.816 296.463 68.648 291.519 71.336C286.575 73.976 282.543 75.296 279.423 75.296Z" fill="#3ABDE7"/>
<circle cx="34" cy="46" r="26" fill="white"/>
</svg>
