<svg width="1920" height="1080" viewBox="0 0 1920 1080" fill="none" xmlns="http://www.w3.org/2000/svg">
<rect width="1920" height="1080" fill="#E5E5E5"/>
<path d="M-280 1115.67H481C683.486 1248.93 905 1016.67 573.05 771.667C241.1 526.667 118.5 284.666 481 35.6666C843.5 -213.333 -280 35.6666 -280 35.6666V1115.67Z" fill="#6E44FF"/>
<path d="M1613.61 -632H1919.61V448C1919.61 448 1402.61 420 1613.61 117C1824.61 -186 1613.61 -632 1613.61 -632Z" fill="#6E44FF"/>
</svg>
